…
isa_words <- isa %>%
  unnest_tokens(word, text) %>%  # tokenize
  select(status_id, created_at, word) %>%  # select variables
  anti_join(stop_words) %>% # eliminate stop words  # remove stop words
  filter(!grepl("https|t.co|amp|rt|de|â|isa18wcs|isa2018wcs|isa_sociology|sociology|isa|session|toronto|canada|congress|conference", 
              word)) %>% # remove unnecessary strings or obvious words
  filter(!grepl("\\b\\d+\\b", word)) # remove numbers

Here is the list of 10 most popular words. Perhaps not very surprising.

isa_words %>%
  count(word) %>%  # count word frequencies
  arrange(desc(n))  # sort by word frequency in a descending order

## # A tibble: 11,278 x 2
##    word          n
##    <chr>     <int>
##  1 social      936
##  2 research    742
##  3 violence    666
##  4 world       506
##  5 people      473
##  6 religion    455
##  7 australia   394
##  8 japan       378
##  9 paper       368
## 10 africa      366
## # ... with 11,268 more rows
…
